{
    "data": [
        {
            "id": 1,
            "documentId": "na6bui3b2omsaqiaurai6sab",
            "Location": "Brandenburger Tor",
            "Content": "Happy birthday to you,  \nhappy birthday to me;  \neveryday we are born,  \neveryday we are free!  \n\nGoodbye Berlin.",
            "When": "2024-05-08",
            "Where": { "lat": 52.516422424615136, "lng": 13.379256263171165 },
            "createdAt": "2024-11-25T19:21:52.551Z",
            "updatedAt": "2024-12-05T22:07:35.989Z",
            "publishedAt": "2024-12-05T22:07:35.979Z",
            "locale": "de-DE",
            "localizations": []
        },
        {
            "id": 3,
            "documentId": "xfjbvew3q6w0gy38ybp7hqg4",
            "Location": "Eine Parkbank",
            "Content": "Meine Schuhe verraten mich, meine Pläne. Wie lange werden sie bleiben?",
            "When": "2024-05-09",
            "Where": { "lat": 52.391496, "lng": 13.171897 },
            "createdAt": "2024-11-25T19:31:23.915Z",
            "updatedAt": "2024-11-25T21:34:14.851Z",
            "publishedAt": "2024-11-25T21:34:14.877Z",
            "locale": "de-DE",
            "localizations": []
        },
        {
            "id": 2,
            "documentId": "qjpbv7e0qpzskdi53zcx6dw4",
            "Location": "Auf dem Weg",
            "Content": "Ich weiß nicht, was ich denken soll. Ich weiß nicht, was ich sagen soll. Ich weiß nicht, was ich machen soll. Also gehe ich einfach.",
            "When": "2024-05-14",
            "Where": { "lat": 51.47121, "lng": 12.460033 },
            "createdAt": "2024-11-25T19:34:02.960Z",
            "updatedAt": "2024-11-25T19:34:02.960Z",
            "publishedAt": "2024-11-25T19:34:02.972Z",
            "locale": "de-DE",
            "localizations": []
        },
        {
            "id": 4,
            "documentId": "l916864sgvzkzztpwep8rkez",
            "Location": "Hörselberge",
            "Content": "Es regnet. Und so fühle ich mich auch. Alles nass. Ich will nicht mehr.",
            "When": "2024-05-21",
            "Where": { "lat": 50.95678, "lng": 10.453813 },
            "createdAt": "2024-11-26T21:20:30.779Z",
            "updatedAt": "2024-11-26T21:20:30.779Z",
            "publishedAt": "2024-11-26T21:20:30.790Z",
            "locale": "de-DE",
            "localizations": []
        },
        {
            "id": 5,
            "documentId": "aaxbwoy98eo9gsb8jo4k6zs1",
            "Location": "Wegzweig Eisenach",
            "Content": "Ist doch logisch: Wenn man nicht weiß, wie es weiter geht, dann hilft eine Karte.",
            "When": "2024-05-22",
            "Where": { "lat": 50.974969, "lng": 10.319114 },
            "createdAt": "2024-11-26T21:22:22.622Z",
            "updatedAt": "2024-11-26T21:24:21.108Z",
            "publishedAt": "2024-11-26T21:24:21.119Z",
            "locale": "de-DE",
            "localizations": []
        },
        {
            "id": 82,
            "documentId": "u43c2pjc5zmlbjwxbvefd1zk",
            "Location": "Spangenberg ",
            "Content": "Wenn du einen Freund triffst, wer sagt zuerst \"Hallo\"?",
            "When": "2024-05-25",
            "Where": { "lat": 51.116657, "lng": 9.667284 },
            "createdAt": "2024-11-26T21:31:00.664Z",
            "updatedAt": "2024-12-16T13:06:26.304Z",
            "publishedAt": "2024-12-16T13:06:26.321Z",
            "locale": "de-DE",
            "localizations": []
        },
        {
            "id": 6,
            "documentId": "xk9d1mpvrbvlkgywkdnv171q",
            "Location": "Klauseborn-Quelle",
            "Content": "| Wert | Menge |\n| - | - |\n| _pH_ | 6,8 |\n| _Cl-_ | 29,1 mg/L |\n| _SO4-_ | 56,4 mg/L |\n| _NO3-_ | 45,1 mg/L |\n| _NO2-_ | < 0,04 mg/L |\n| _Pb_ | < 0,0015 mg/L |\n| _Ca_ | 66,3 mg/L |\n| _K_ | 3,25 mg/L |\n| _Cu_ | 0,005 mg/L |\n| _Mg_ | 6,45 mg/L |\n| _Na_ | 1?,65 mg/L |",
            "When": "2024-05-27",
            "Where": { "lat": 50.878616, "lng": 9.121822 },
            "createdAt": "2024-11-26T21:37:04.911Z",
            "updatedAt": "2024-12-03T21:54:02.606Z",
            "publishedAt": "2024-12-03T21:54:02.596Z",
            "locale": "de-DE",
            "localizations": []
        },
        {
            "id": 7,
            "documentId": "airc6r1a1x3ir0wxmviczgie",
            "Location": "Ars Natura ",
            "Content": "> Ein Wald, in dem Bäume nach unten wachsen.\n\n**Christian 3Rooosen**",
            "When": "2024-05-28",
            "Where": { "lat": 50.807155, "lng": 8.773379 },
            "createdAt": "2024-11-27T21:44:20.539Z",
            "updatedAt": "2024-12-05T22:17:54.564Z",
            "publishedAt": "2024-12-05T22:17:54.553Z",
            "locale": "de-DE",
            "localizations": []
        },
        {
            "id": 8,
            "documentId": "s3pzxc6r1s7cfqwhl61h7pxd",
            "Location": "Tag 1",
            "Content": "Gemeinsam. Regen. Alle schlafen. Fast alle.",
            "When": "2024-05-30",
            "Where": { "lat": 50.817641, "lng": 8.611271 },
            "createdAt": "2024-11-27T21:45:58.597Z",
            "updatedAt": "2024-11-27T21:45:58.597Z",
            "publishedAt": "2024-11-27T21:45:58.594Z",
            "locale": "de-DE",
            "localizations": []
        },
        {
            "id": 9,
            "documentId": "oykqdzlw74fskh5i1f9z6ixa",
            "Location": "Ein Zuhause",
            "Content": "Zum Platz der Sterne also laufe ich. Die Aussicht ist schön. Und nicht der Weg ist das Ziel, sondern die Leute auf ihm!",
            "When": "2024-06-07",
            "Where": { "lat": 50.730101, "lng": 5.993566 },
            "createdAt": "2024-11-27T21:47:33.671Z",
            "updatedAt": "2024-11-27T21:47:33.671Z",
            "publishedAt": "2024-11-27T21:47:33.668Z",
            "locale": "de-DE",
            "localizations": []
        },
        {
            "id": 10,
            "documentId": "dsfparm9u5iwidkog8fnufpk",
            "Location": "Am Wegesrand ",
            "Content": "Regen. Ankommen. Ruhe. Briefe. Einkaufen. Müde.",
            "When": "2024-06-16",
            "Where": { "lat": 49.7083657, "lng": 4.2155189 },
            "createdAt": "2024-11-27T21:53:26.939Z",
            "updatedAt": "2024-11-27T21:53:26.939Z",
            "publishedAt": "2024-11-27T21:53:26.936Z",
            "locale": "de-DE",
            "localizations": []
        },
        {
            "id": 11,
            "documentId": "m0tjxw8yosw7sn8qdnij6c5w",
            "Location": "Loch",
            "Content": "Gute Nacht erstmal.",
            "When": "2024-06-18",
            "Where": { "lat": 49.3413065, "lng": 4.0164917 },
            "createdAt": "2024-11-27T21:55:18.158Z",
            "updatedAt": "2024-11-28T21:13:42.493Z",
            "publishedAt": "2024-11-28T21:13:42.479Z",
            "locale": "de-DE",
            "localizations": []
        },
        {
            "id": 12,
            "documentId": "ho2ptx8x5xhcq99n5ccuxnz6",
            "Location": "Am Essenstisch ",
            "Content": "Es geht nicht darum, möglichst wenig dabeizuhaben. Es geht darum, sich dem Werte des Inhalts des Rucksacks bewusst zu sein.",
            "When": "2024-06-20",
            "Where": { "lat": 49.2175575, "lng": 4.0345526 },
            "createdAt": "2024-11-27T21:57:32.938Z",
            "updatedAt": "2024-11-27T21:58:13.569Z",
            "publishedAt": "2024-11-27T21:58:13.562Z",
            "locale": "de-DE",
            "localizations": []
        },
        {
            "id": 13,
            "documentId": "d1srkfsdhei9hcdy4dl3mndn",
            "Location": "Frankreich ",
            "Content": "Oh wie schön ist Frankreich!",
            "When": "2024-06-24",
            "Where": { "lat": 48.228323, "lng": 3.9767303 },
            "createdAt": "2024-11-28T21:03:01.491Z",
            "updatedAt": "2024-11-28T21:04:47.480Z",
            "publishedAt": "2024-11-28T21:04:47.473Z",
            "locale": "de-DE",
            "localizations": []
        },
        {
            "id": 14,
            "documentId": "lxjumtr020x5ukuecn4c0yj3",
            "Location": "Voller Wein",
            "Content": "Ich ziehe jetzt durch und dann ist es Zeit, einen kühlen Kopf zu bekommen.",
            "When": "2024-06-26",
            "Where": { "lat": 47.8044358, "lng": 3.7720314 },
            "createdAt": "2024-11-28T21:06:45.782Z",
            "updatedAt": "2024-11-28T21:14:10.694Z",
            "publishedAt": "2024-11-28T21:14:10.686Z",
            "locale": "de-DE",
            "localizations": []
        },
        {
            "id": 15,
            "documentId": "jm1t6r7s7i5hojhnipxe2qr7",
            "Location": "Dorfplatz",
            "Content": "Oh, die Glücksgefühle! Den Gang rausgenommen. Ich mache Pause. Zumindestens sitze ich mitten am Tag in einem Cafe. Aber wohin geht es jetzt?",
            "When": "2024-06-27",
            "Where": { "lat": 47.68301682693631, "lng": 3.6908272155542092 },
            "createdAt": "2024-11-28T21:08:43.705Z",
            "updatedAt": "2024-11-28T21:08:43.705Z",
            "publishedAt": "2024-11-28T21:08:43.702Z",
            "locale": "de-DE",
            "localizations": []
        },
        {
            "id": 16,
            "documentId": "x39gn8tvhrtnaen5rlp8eeiv",
            "Location": "Nowhere particular",
            "Content": "> What you are willing to die for, you have to live for\n\n_**Isaac**_",
            "When": "2024-07-03",
            "Where": { "lat": 46.6253961, "lng": 3.8299068 },
            "createdAt": "2024-11-28T21:19:31.808Z",
            "updatedAt": "2024-11-28T21:24:33.877Z",
            "publishedAt": "2024-11-28T21:24:33.868Z",
            "locale": "de-DE",
            "localizations": []
        },
        {
            "id": 17,
            "documentId": "v9z0mnmrg61ws3gw4n3t6zpy",
            "Location": "Kirche ",
            "Content": "Ja aber was mache ich? Wo will ich hin, so schnell? Ist es das wert? Kann es das wert sein? Ich fühle Schmerz, Leid und Stress in mir. Mein Kopf schmerzt. Ich finde keine Ruhe. Ein bisschen verweilen hier in dieser Kirche kann ich, ein bisschen. Ich werde krank. Wortwörtlich. Und der harte Teil kommt noch. Also, was ist es wert? Ist das der Preis für die Freiheit? Keine Sicherheit? Immer ungewiss? Ich bin müde.",
            "When": "2024-07-06",
            "Where": { "lat": 45.9784329, "lng": 3.6972045 },
            "createdAt": "2024-11-28T21:26:53.923Z",
            "updatedAt": "2024-11-28T21:26:53.923Z",
            "publishedAt": "2024-11-28T21:26:53.918Z",
            "locale": "de-DE",
            "localizations": []
        },
        {
            "id": 18,
            "documentId": "ddkjxrcb0euhaxup0zr5pzfe",
            "Location": "Im Wartehof",
            "Content": "Thunder rolling  \nLightning flashing  \nFeel the blank in my blood  \nSetting peace with my way  \nBeauty lies in histories time  \nI came to enjoy the stones remains  \nUnlike me they resist weather and change  \nNot ending but staying in place  \nIt shall settle what is to be  \nIt shall calm the tides of time  \nOh time it takes and if forever  \nMy walk remains I'll end it never  ",
            "When": "2024-07-11",
            "Where": { "lat": 45.04525678936654, "lng": 3.885989449217911 },
            "createdAt": "2024-12-03T21:18:22.919Z",
            "updatedAt": "2024-12-05T22:08:49.679Z",
            "publishedAt": "2024-12-05T22:08:49.671Z",
            "locale": "de-DE",
            "localizations": []
        },
        {
            "id": 19,
            "documentId": "zw2gg39mm78vgl004nw8g9yr",
            "Location": "Bank Stadtmitte",
            "Content": "Hier sitze ich und warte. Dass es losgeht. Oh. Elvis kommt. Jade kommt.",
            "When": "2024-07-13",
            "Where": { "lat": 44.99000733391672, "lng": 3.678609502153583 },
            "createdAt": "2024-12-03T21:21:30.163Z",
            "updatedAt": "2024-12-03T21:21:30.163Z",
            "publishedAt": "2024-12-03T21:21:30.158Z",
            "locale": "de-DE",
            "localizations": []
        },
        {
            "id": 20,
            "documentId": "ma8ff5raivdh29puafdqcf8z",
            "Location": "Refuge libre",
            "Content": "> I am consciously creating the person I am becoming\n\n**@STONY_FⱯIRY_**",
            "When": "2024-07-14",
            "Where": { "lat": 44.90974691422344, "lng": 3.5044194951490324 },
            "createdAt": "2024-12-03T21:40:47.103Z",
            "updatedAt": "2024-12-05T22:05:14.542Z",
            "publishedAt": "2024-12-05T22:05:14.534Z",
            "locale": "de-DE",
            "localizations": []
        },
        {
            "id": 21,
            "documentId": "pc4na2rwh6kh7knqpacof9oo",
            "Location": "Lestrade",
            "Content": "Il y a du temps. Des bonnes temps. Gute Zeiten sozusagen. Man könnte fast meinen, ich genieße das Leben.",
            "When": "2024-07-17",
            "Where": { "lat": 44.558733676813596, "lng": 2.873542948069261 },
            "createdAt": "2024-12-03T22:06:24.947Z",
            "updatedAt": "2024-12-03T22:06:24.947Z",
            "publishedAt": "2024-12-03T22:06:24.940Z",
            "locale": "de-DE",
            "localizations": []
        },
        {
            "id": 22,
            "documentId": "k0ld7d2n8sa1b0seyjprj56s",
            "Location": "Im Dorf",
            "Content": "Ja, das Wetter bestimmt was wir tun. Was uns die Leute erzählen. Es scheint, als wäre das wichtigste im Moment das Wetter. Stefanie, die eine gîte ihrem Zelt vorzieht. Das Pärchen, das heute anstatt morgen aufhört, weil das Wetter schlechter wird.",
            "When": "2024-07-20",
            "Where": { "lat": 44.60472923295973, "lng": 2.583484508789864 },
            "createdAt": "2024-12-03T22:15:05.821Z",
            "updatedAt": "2024-12-03T22:15:05.821Z",
            "publishedAt": "2024-12-03T22:15:05.817Z",
            "locale": "de-DE",
            "localizations": []
        },
        {
            "id": 23,
            "documentId": "p1d2foaw7kmmkw4gkbts5758",
            "Location": "Conques",
            "Content": "> Le chemin c'est une chemin de la liberté.\n\n**Moi**\n\n> Ecoute ton cœur plutôt que ta raison.\n\n**Moi**\n\n> À quoi ça sert d’avoir des pieds, si c’est pour rester enraciné là comme une pauvre plaute?\n\n**Victor Hugo**\n\n> J'aime partir.\n\n**Moi**\n\n> Ça marche, je marche, tu marches, nous marchons.\n\n**Moi**\n\n> Les vaches sont mes amis.\n\n**Moi**\n\n> Acceuillir c'est ouvrir grand son cœur et n'attendre personne.\n\n**L'alchimiste**\n\n> La vie c'est maintenant.\n\n**Célia**\n\nEin bisschen aufgeregt. Nachdenklich. Nicht wirklich traurig. Aber ich möchte weinen. Und aufbrechen.",
            "When": "2024-07-22",
            "Where": { "lat": 44.59926321814235, "lng": 2.397529082804564 },
            "createdAt": "2024-12-03T22:18:16.908Z",
            "updatedAt": "2024-12-06T11:58:12.005Z",
            "publishedAt": "2024-12-06T11:58:11.996Z",
            "locale": "de-DE",
            "localizations": []
        },
        {
            "id": 24,
            "documentId": "dl5gymu06ym0y1l1213dzqy4",
            "Location": "GR62b",
            "Content": "I didn't expect it to end today, but it did. Our lifes part now. Didn't I say \"J'aime partir\"? And actually, I liked it. We shared, we loved. And when we remember, we are close. It is perfect.",
            "When": "2024-07-22",
            "Where": { "lat": 44.55887753518108, "lng": 2.3113604129595093 },
            "createdAt": "2024-12-03T22:27:59.101Z",
            "updatedAt": "2024-12-03T22:27:59.101Z",
            "publishedAt": "2024-12-03T22:27:59.096Z",
            "locale": "de-DE",
            "localizations": []
        }
    ],
    "meta": {
        "pagination": { "page": 1, "pageSize": 25, "pageCount": 3, "total": 73 }
    }
}
